{
    "candy": "switzlers",
    "colors": ["blue", "green", "black",
              "white", "purple", "red"],
    "movies" : {
                  "favorite comedy": "Life",
                  "favorite action": "Guyver 2",
                  "listOfMovies": ["Life", "Moana", "Something Something JoJo's Adventure? Idk", "Scent of a woman",
                                 "Princess Bride",  "Flubber", "Blank Man", "Guyver 2"]
              },
     "paragraph": "mailman"
 
 }